b1 c3
e7 e5
e2 e4
b8 c6
g1 f3
g8 f6
d2 d4
e5 d4
f3 d4
c6 d4
d1 d4
f6 g4
f1 d3
f8 e7
d4 g7
g4 f2
e1 f2
d7 d5
g7 h8
e7 f8
e4 d5
c8 d7
h8 h7
f8 c5
f2 e1
f7 f5
c1 f4
b7 b5
a1 d1
b5 b4
d3 f5
d7 f5
h7 f5
b4 c3
b2 c3
a7 a5
c3 c4
a5 a4
c2 c3
a4 a3
d5 d6
c7 d6
g2 g4
d6 d5
c4 d5
d8 e7
e1 d2
a8 d8
d2 c1
d8 d5
f5 d5
c5 f2
c3 c4
e7 f6
g4 g5
f6 f4
d1 d2
f2 c5
d5 c5
f4 d2
b8 b8
b8 b8
b8 b8